
<svg width="597px" height="302px" viewBox="0 0 597 302" version="1.1" xmlns="http://www.w3.org/2000/svg" xmlns:xlink="http://www.w3.org/1999/xlink">
    <g id="Page-1" stroke="none" stroke-width="1" fill="none" fill-rule="evenodd">
        <g id="Amazonas---mission" transform="translate(-409.000000, -1006.000000)">
            <text id="flood-danger:-9m3" font-family="LeagueMonoVariable-Regular_Light-Normal, League Mono Variable" font-size="14" font-weight="300" line-spacing="18" fill="#7D78FF">
                <tspan x="625.344086" y="1304">flood danger: 9m</tspan>
                <tspan x="774.975922" y="1304" baseline-shift="super" font-size="10">3</tspan>
            </text>
            <polygon id="Stroke-1" stroke="#7D78FF" points="856.25 1066.55556 856.25 1036.77778 757.083333 1036.77778 757.083333 1007 707.5 1007 707.5 1155.88889 608.333333 1155.88889 608.333333 1126.11111 558.75 1126.11111 558.75 1096.33333 509.166667 1096.33333 509.166667 1066.55556 410 1066.55556 410 1275 1005 1275 1005 1066.55556 955.416667 1066.55556"></polygon>
            <polygon id="Path-14" fill="#7D78FF" points="509 1066.43359 707 1066.43359 707 1156 608 1156 608 1126.04995 558.676859 1126.04995 558.676859 1096.29785 509 1096.29785"></polygon>
            <text id="water-pools" font-family="LeagueMonoVariable-Regular_Light-Normal, League Mono Variable" font-size="14" font-weight="300" fill="#FFFFFF">
                <tspan x="582.064056" y="1108">water pools</tspan>
            </text>
            <text id="7" font-family="LeagueMonoVariable-Regular_Light-Normal, League Mono Variable" font-size="14" font-weight="300" fill="#7D78FF">
                <tspan x="432.824005" y="1091">7</tspan>
            </text>
            <text id="7" font-family="LeagueMonoVariable-Regular_Light-Normal, League Mono Variable" font-size="14" font-weight="300" fill="#7D78FF">
                <tspan x="481.824005" y="1091">7</tspan>
            </text>
            <text id="7" font-family="LeagueMonoVariable-Regular_Light-Normal, League Mono Variable" font-size="14" font-weight="300" fill="#7D78FF">
                <tspan x="874.824005" y="1091">7</tspan>
            </text>
            <text id="8" font-family="LeagueMonoVariable-Regular_Light-Normal, League Mono Variable" font-size="14" font-weight="300" fill="#7D78FF">
                <tspan x="820.824005" y="1063">8</tspan>
            </text>
            <text id="8" font-family="LeagueMonoVariable-Regular_Light-Normal, League Mono Variable" font-size="14" font-weight="300" fill="#7D78FF">
                <tspan x="775.824005" y="1063">8</tspan>
            </text>
            <text id="9" font-family="LeagueMonoVariable-Regular_Light-Normal, League Mono Variable" font-size="14" font-weight="300" fill="#7D78FF">
                <tspan x="724.824005" y="1029">9</tspan>
            </text>
            <text id="4" font-family="LeagueMonoVariable-Regular_Light-Normal, League Mono Variable" font-size="14" font-weight="300" fill="#7D78FF">
                <tspan x="685.824005" y="1183">4</tspan>
            </text>
            <text id="4" font-family="LeagueMonoVariable-Regular_Light-Normal, League Mono Variable" font-size="14" font-weight="300" fill="#7D78FF">
                <tspan x="637.824005" y="1183">4</tspan>
            </text>
            <text id="5" font-family="LeagueMonoVariable-Regular_Light-Normal, League Mono Variable" font-size="14" font-weight="300" fill="#7D78FF">
                <tspan x="577.824005" y="1151">5</tspan>
            </text>
            <text id="6" font-family="LeagueMonoVariable-Regular_Light-Normal, League Mono Variable" font-size="14" font-weight="300" fill="#7D78FF">
                <tspan x="532.824005" y="1119">6</tspan>
            </text>
            <text id="7" font-family="LeagueMonoVariable-Regular_Light-Normal, League Mono Variable" font-size="14" font-weight="300" fill="#7D78FF">
                <tspan x="919.824005" y="1091">7</tspan>
            </text>
            <text id="7" font-family="LeagueMonoVariable-Regular_Light-Normal, League Mono Variable" font-size="14" font-weight="300" fill="#7D78FF">
                <tspan x="973.824005" y="1091">7</tspan>
            </text>
        </g>
    </g>
</svg>